10004,Neville,Bissember,Daughter,Female,Bissember,Erica,1993-09-22,,
10004,Neville,Bissember,Son,Male,Bissember,Neville,1987-09-07,,
10004,Neville,Bissember,Wife,Female,Bissember,Ingrid,1951-06-23,Yes,
10006,Suzette,Grant,Daughter,Female,Dey,Lenise,1981-01-08,,
10009,Barbara,Vandyke,Daughter,,Vandyke,Chareese,1999-10-01,Yes,Yes
10009,Barbara,Vandyke,Husband,Female,Vandyke,Charles,1952-04-11,Yes,
10012,Vance,Bascom,Daughter,Female,Bascom,Vianna,2012-01-05,Yes,
10012,Vance,Bascom,Wife,Female,Bascom,Juliet,1979-06-12,Yes,
10012,Vance,Bascom,Daughter,Female,Bascom,Vania,2009-06-15,Yes,
10013,Oswin,Harte,Son,Male,Harte,Trisson,2002-06-24,Yes,Yes
10013,Oswin,Harte,Wife,Female,Harte,Marcia,1976-03-28,Yes,
10013,Oswin,Harte,Son,Male,Harte,Tahir,2010-10-08,Yes,
10015,Natalie,Birkett,Son,Male,Roach,Brandon,2005-05-21,Yes,
10016,Leonard,Robertson,Son,Male,Robertson,Jelani,1991-02-20,,
10016,Leonard,Robertson,Wife,Female,Robertson,Princess,1958-04-01,Yes,
10016,Leonard,Robertson,Daughter,Female,Robertson,Khalea,1995-08-13,,
10017,Michelle,Nurse,Son,Male,Nurse,Shelvin,1994-06-26,,
10017,Michelle,Nurse,Husband,Male,Nurse,Gavin,1964-07-20,Yes,
10022,Tusankine,English-Francis,Husband,Male,Francis,Aquinas,1976-01-28,Yes,
10022,Tusankine,English-Francis,Father,Male,Francis,Herbert,1950-07-11,Yes,
10022,Tusankine,English-Francis,Daughter,Female,Francis,Gabriella,2013-10-14,Yes,
10022,Tusankine,English-Francis,Son,Male,Francis,Elijah,2015-07-07,,
10024,Shola,Bishop,Husband,Male,Bishop,Ron,1972-11-18,Yes,
10024,Shola,Bishop,Daughter,Female,Bishop,Nia,2002-10-28,Yes,Yes
10024,Shola,Bishop,Son,Male,Bishop,Mawali,2000-02-19,,
10025,Alexis,Downes-Amsterdam,Daughter,Female,Amsterdam,Rei-Launya,1991-10-13,,
10025,Alexis,Downes-Amsterdam,Daughter,Female,Amsterdam,Jae-Anya,2002-11-21,Yes,Yes
10025,Alexis,Downes-Amsterdam,Daughter,Female,Amsterdam,Leigh-Riane,1997-04-28,,
10025,Alexis,Downes-Amsterdam,Husband,Male,Amsterdam,Ronald,1956-07-05,Yes,
10025,Alexis,Downes-Amsterdam,Daughter,Female,Amsterdam,Tahj-Anais,2000-11-09,Yes,Yes
10039,Curvelle,David,Son,Male,David,Khamal,2008-06-24,Yes,
10041,Charmaine,Atkinson-Jordan,Husband,Male,Jordan,Winston,1957-08-04,Yes,
10042,Sheron,Smith,Daughter,Female,Barrow,Sharissa,1987-10-05,,
10042,Sheron,Smith,Mother,Female,Smith,Joan,1943-05-27,Yes,
10043,St. Clair Fitz Gerald,Crick,Wife,Female,Crick,Lauren,1957-06-22,,
10043,St. Clair Fitz Gerald,Crick,Daughter,Female,Crick,Lanell,2002-03-04,,
10043,St. Clair Fitz Gerald,Crick,Son,Male,Collilns,Javid,1998-11-23,,
10046,Vanessa,Stephney,Son,Male,Stephney,Nicholas,1994-12-15,,
10046,Vanessa,Stephney,Son,Male,Stephney,Jonathan,2003-10-07,Yes,Yes
10046,Vanessa,Stephney,Husband,Male,Hercules,Lester,1966-10-02,Yes,
10046,Vanessa,Stephney,Son,Male,Stephney,Judah,1998-03-27,,
10046,Vanessa,Stephney,Son,Male,Stephney,Orin,1991-02-04,,
10047,Yolanda,Darrell,Daughter,Female,Darrell,Tabitha,2004-06-12,Yes,
10047,Yolanda,Darrell,Husband,Male,Darrell,Andre,1964-07-18,Yes,
10048,Rayan,Thomas,Daughter,Female,Thomas,Jinelle,1998-09-19,Yes,Yes
10048,Rayan,Thomas,Son,Male,Thomas,Justin,2005-05-10,Yes,
10049,Sherry,La Rose,Son,Male,Alexander,Hamere,1991-08-14,,
10051,Tandy,Holder-Frank,Husband,Male,Frank,Gregory,1972-03-20,Yes,
10051,Tandy,Holder-Frank,Son,Male,Holder,Stephan,2001-12-14,Yes,Yes
10051,Tandy,Holder-Frank,Daughter,Female,Frank,Galianna,2012-12-26,,
10051,Tandy,Holder-Frank,Daughter,Female,Frank,Gabriella,2011-07-08,Yes,
10052,Michael,Waithe,Son,Male,Waithe,Nathan,2016-03-31,Yes,
10052,Michael,Waithe,Wife,Female,Waithe,Dana,1984-11-29,Yes,
10052,Michael,Waithe,Daughter,,Waithe,Nia,2018-04-09,Yes,
10053,Gail,Haynes,Husband,Male,Haynes,Bruce,1956-10-11,Yes,
10053,Gail,Haynes,Son,Male,Haynes,Akili,2001-06-18,Yes,Yes
10053,Gail,Haynes,Daughter,Female,Haynes,Ariel,1991-05-10,,
10057,Lynda,Drakes,Mother,Female,Drakes,Erla,1941-03-17,Yes,
10057,Lynda,Drakes,Daughter,Female,Mcewan,Chelsea,2002-12-05,,
10057,Lynda,Drakes,Father,Male,Drakes,Alfred,1938-06-19,Yes,
10057,Lynda,Drakes,Son,Male,Mcewan,Cy,2005-02-21,,
10058,Ronald,Joseph,Son,Male,Joseph,Osei,2003-08-17,Yes,Yes
10058,Ronald,Joseph,Wife,Female,Joseph,Gloria,1972-09-20,Yes,
10058,Ronald,Joseph,Son,Male,Joseph,Omari,1999-06-22,Yes,Yes
10063,Tessa,Cumberbatch,Daughter,Female,D'aguiar,Tricia,1995-01-06,,
10066,Denise,Burrowes,Son,Male,Burrowes,Dwayne,1988-04-07,,
10066,Denise,Burrowes,Son,Male,Burrowes,Delroy,1992-01-22,,
10067,Dorette,Cummings,Daughter,Female,Cummings,Deandrea,1997-12-01,,
10067,Dorette,Cummings,Husband,Male,Cummings,Elroy,1952-04-19,Yes,
10067,Dorette,Cummings,Son,Male,Cummings,Dwayne,1991-09-03,,
10067,Dorette,Cummings,Daughter,Female,Cummings,Keisha,1992-08-20,,
10068,Anita,Gittens,Son,Male,Gittens,Osei,1993-04-05,,
10071,Fonda,Vickerie,Son,Male,Vickerie,Steven,2010-03-12,Yes,
10071,Fonda,Vickerie,Daughter,Female,Vickerie,Sheri-ann,2002-02-21,Yes,Yes
10072,Denise,Aaron,Son,Male,Aaron,Rishaud,2000-02-14,,
10072,Denise,Aaron,Daughter,Female,Aaron,Kimberlee,1999-09-29,,
10073,Simone,Smartt,Son,Male,Bailey,Ryan,1989-05-01,,
10073,Simone,Smartt,Son,Male,Bailey,Raul,1991-08-13,,
10073,Simone,Smartt,Daughter,Female,Griffith,Crystal,1996-04-18,,
10074,Denise,Morgan,Daughter,Female,Moore,Natalie,1988-08-21,,
10074,Denise,Morgan,Husband,Male,Morgan,Stanley,1943-08-26,Yes,
10075,Carl,Troyer,Daughter,Female,Troyer,Tonique,2004-08-30,Yes,
10075,Carl,Troyer,Son,Male,Troyer,Nathan,2014-04-29,Yes,
10075,Carl,Troyer,Wife,Female,Troyer,Melissa,1971-04-30,Yes,
10077,Jenifer,Edwards-John,Son,Male,Beaton,Renaldo,2002-11-10,,
10077,Jenifer,Edwards-John,Husband,,John,Desmond,1959-10-11,,
10077,Jenifer,Edwards-John,Daughter,Female,Beaton,Renee,1995-05-04,,
10079,Yvonne,Todd,Husband,Male,Todd,Gavin,1969-05-30,Yes,
10079,Yvonne,Todd,Daughter,Female,Todd,Kevia,1995-04-27,,
10079,Yvonne,Todd,Son,Male,Todd,Daren,2008-10-15,Yes,
10079,Yvonne,Todd,Daughter,Female,Todd,Joyann,2000-02-04,Yes,Yes
10084,Charlen,Velloza,Husband,Male,Velloza,Brian,1965-04-13,Yes,
10084,Charlen,Velloza,Daughter,Female,Velloza,Charlene,1998-12-19,,
10084,Charlen,Velloza,Son,Male,Haymer,Nigel,1987-12-19,,
10084,Charlen,Velloza,Daughter,Female,Haymer,Namyamka,2005-03-23,Yes,
10084,Charlen,Velloza,Son,Male,Velloza,Nkosi,1995-09-28,,
10085,Kwame,John,Son,Male,John,Keith,2018-08-20,Yes,
10089,Gillian,Lord,Son,Male,Lord,Noel,1997-09-18,,
10089,Gillian,Lord,Husband,Male,Lord,Paul (snr.),1956-02-10,Yes,
10089,Gillian,Lord,Daughter,Female,Lord,Kara,1988-03-24,,
10089,Gillian,Lord,Son,Male,Lord,Paul jnr.,1985-10-26,,
10090,Erwin,Roberts,Wife,Female,Gibson-roberts,Naomie,1982-03-09,Yes,
10090,Erwin,Roberts,Daughter,,Roberts,Kenishia,2001-09-07,Yes,Yes
10090,Erwin,Roberts,Daughter,Female,Roberts,Divine,2011-01-25,Yes,
10093,Kurt,Garner,Son,Male,Garner,Kurt jnr.,1999-05-29,,
10093,Kurt,Garner,Daughter,Female,Garner,Kelly,2009-04-30,Yes,
10093,Kurt,Garner,Daughter,Male,Garner,Shanice,1993-09-29,,
10096,Necola,Meyers,Son,Male,Meyers,Jamal,1996-10-19,,
10096,Necola,Meyers,Son,Male,Meyers,Michael,1998-05-14,,
10096,Necola,Meyers,Son,Male,Meyers,Nnamdi,2011-01-19,Yes,
10099,Althea,Siland,Husband,Male,Siland,Romelton,1977-07-08,Yes,
10099,Althea,Siland,Daughter,Female,Siland,Amariah,2012-04-02,Yes,
10100,Dexter,Anderson,Daughter,Female,Anderson,Aliyyah,1997-11-18,,
10100,Dexter,Anderson,Wife,Female,Anderson,Francina,1976-01-06,Yes,
10100,Dexter,Anderson,Daughter,Female,Anderson,Rihana,2005-08-30,,
10100,Dexter,Anderson,Daughter,Female,Anderson,Aasiyah,2001-05-31,Yes,Yes
10100,Dexter,Anderson,Son,Male,Anderson,Shaquan,1996-03-26,,
10100,Dexter,Anderson,Son,Male,Anderson,Musa,2003-03-03,Yes,Yes
10101,Terianna,Bisnauth,Son,Male,McAllister,Khalfani,2009-04-26,Yes,
10101,Terianna,Bisnauth,Husband,Male,McAllister,Selwyn,1981-05-24,Yes,
10108,Elizabeth,Yearwood,Mother,Female,Hinckson,Eileen,1941-12-23,Yes,
10109,Joylyn,Gevan,Daughter,Female,Williams,Makalya,2014-08-19,Yes,
10109,Joylyn,Gevan,Son,Male,Bascom,Meshach,2003-05-05,,
10109,Joylyn,Gevan,Son,Male,Bascom,Mark,1992-10-31,,
10110,Mark,Britton,Son,Male,Britton,Ceon,1988-06-30,,
10110,Mark,Britton,Son,Male,Britton,Oawasi,1997-08-14,,
10110,Mark,Britton,Daughter,Female,Britton,Carissa,2006-11-03,,
10110,Mark,Britton,Daughter,Female,Britton,Omatola,1992-04-24,,
10110,Mark,Britton,Son,Male,Britton,Osaffo,2004-03-03,Yes,
10110,Mark,Britton,Wife,Female,Joseph,Allison,1963-11-30,,
10110,Mark,Britton,Son,Male,Britton,Orlando,1996-03-03,,
10110,Mark,Britton,Son,Male,Britton,Chrishawn,2004-05-28,Yes,
10111,Vonetta,Le Black,Daughter,Female,Smith,Makena,2005-05-16,Yes,
10114,Gaitree,Thompson,Son,Male,Thompson,Jermain,1990-05-08,,
10114,Gaitree,Thompson,Son,Male,Thompson,Terrence,1989-06-17,,
10115,Clem,Wilson,Wife,Female,Wilson,Joy,1964-10-26,Yes,
10115,Clem,Wilson,Daughter,Female,Wilson,Dominique,1998-03-10,Yes,Yes
10118,Linden,Fraser,Daughter,Female,Fraser,Nakita,1996-07-31,,
10118,Linden,Fraser,Wife,Female,Fraser,Alicia,1976-08-02,Yes,
10118,Linden,Fraser,Daughter,Female,Fraser,Lindsey,2000-06-09,,
10118,Linden,Fraser,Son,Male,Fraser,Leon,1990-07-31,,
10118,Linden,Fraser,Daughter,Female,Fraser,Linola,2002-03-31,,
10119,Murtland,Fraser,Daughter,Female,Fraser,Kenisha,1990-07-19,,
10119,Murtland,Fraser,Daughter,Female,Fraser,Jessica,2000-10-18,Yes,Yes
10119,Murtland,Fraser,Son,Male,Fraser,Michael,1996-09-03,,
10119,Murtland,Fraser,Son,Male,Fraser,Jaden,2008-07-16,Yes,
10119,Murtland,Fraser,Wife,Female,Fraser,Colleen,1977-11-18,Yes,
10119,Murtland,Fraser,Son,Male,Fraser,Montell,1997-08-23,,
10122,Shem,Joseph,Daughter,Female,Joseph,Sage,2016-12-16,Yes,
10127,Jewel,Smartt,Husband,Male,Dash,Lindon,1963-03-01,Yes,
10127,Jewel,Smartt,Son,Male,Dash,Lyndon,1996-12-05,,
10127,Jewel,Smartt,Daughter,Female,Dash,Tricia,1998-04-09,Yes,Yes
10130,Karen,Vanderhyden,Daughter,Female,Jaundoo,Rochelle,1993-01-23,,
10130,Karen,Vanderhyden,Son,Male,Jaundoo,Delon,1994-08-11,,
10132,Odetta,Young,Daughter,Female,Hall,Omaiah,2001-11-05,Yes,Yes
10134,Nigel,Glasgow,Wife,Female,Glasglow,Beverly,1961-12-06,Yes,
10134,Nigel,Glasgow,Son,Male,Glasglow,Nicholas,1990-10-23,,
10134,Nigel,Glasgow,Son,Male,Glasglow,Samuel,1994-11-22,,
10134,Nigel,Glasgow,Daughter,,Glasglow,Regina,1997-04-18,,
10134,Nigel,Glasgow,Son,Male,Glasglow,Jason,1992-02-26,,
10138,Derrick,Agdomar,Daughter,Female,Agdomar,D'andree,1998-03-20,,
10138,Derrick,Agdomar,Wife,Female,Agdomar,Wanda,1985-06-28,Yes,
10138,Derrick,Agdomar,Daughter,Female,Agdomar,Bethany,2011-02-26,Yes,
10138,Derrick,Agdomar,Daughter,Female,Agdomar,Giada,2013-03-07,Yes,
10139,Hussein,Alli,Son,Male,Alli,Mark,1995-02-09,,
10139,Hussein,Alli,Son,Male,Alli,Marick,2000-06-23,Yes,Yes
10139,Hussein,Alli,Wife,Female,Alli,Deowattie,1966-03-08,Yes,
10141,Nigel,Rowe,Son,Male,Rowe,Emmanuel,1994-12-14,,
10141,Nigel,Rowe,Daughter,Female,Rowe,Venus,2003-03-29,Yes,Yes
10141,Nigel,Rowe,Son,Male,Rowe,Jeremiah,1998-03-08,,
10141,Nigel,Rowe,Wife,Female,Rowe,Maxine,1971-07-13,Yes,
10141,Nigel,Rowe,Son,Male,Rowe,Akeem,2001-08-29,Yes,Yes
10147,Petal,Dodson,Daughter,,Amsterdam,Karis,2014-07-04,Yes,
10147,Petal,Dodson,Daughter,Female,Dodson,Harmony,2008-06-01,Yes,
10148,Marcia,Job,Daughter,Female,Noble,Weslyn,1988-08-23,,
10149,Cecily,Johnson,Daughter,,Johnson,Keziah,2003-09-01,Yes,
10149,Cecily,Johnson,Husband,Male,Joseph,Terrence,1983-12-14,Yes,
10149,Cecily,Johnson,Daughter,,Crum-Ewing,Solana,2007-04-14,Yes,
10149,Cecily,Johnson,Son,,Johnson,Akil,1997-05-28,,
10153,Charmaine,Haynes,Daughter,Female,Bassier,Arianna,2015-12-10,Yes,
10153,Charmaine,Haynes,Husband,Male,Bassier,Adrian,1971-04-07,Yes,
10153,Charmaine,Haynes,Son,Male,Bassier,Aaron,2018-03-29,Yes,
10154,Holly,Stewart,Son,Male,Peterkin,Kadeem,1998-08-10,,
10154,Holly,Stewart,Son,Male,Peterkin,Kibwey,1993-10-07,,
10154,Holly,Stewart,Daughter,Female,Peterkin,Kenesha,1995-09-13,,
10156,Chester,James,Daughter,Female,James,Sasha,1996-09-29,,
10156,Chester,James,Son,Male,James,Chestin,1999-09-21,Yes,Yes
10156,Chester,James,Wife,Female,Williams-james,Nicold,1972-09-01,Yes,
10157,Sharon,Jordan,Daughter,Female,Jordan,Sarah,1989-09-16,,
10157,Sharon,Jordan,Mother,Female,Gomes,Patricia,1923-01-14,Yes,Yes
10158,Kenneth,Williams,Son,Male,Williams,Michael,1995-05-20,,
10158,Kenneth,Williams,Son,Male,Williams,Jonathan,2003-01-02,,
10158,Kenneth,Williams,Wife,Female,Williams,Marcia,1979-09-15,Yes,
10158,Kenneth,Williams,Son,Male,Williams,Jedidiah,1996-10-17,,
10158,Kenneth,Williams,Daughter,Female,Williams,Keziah,1993-12-31,,
10158,Kenneth,Williams,Son,Male,Williams,Jerimiah,1999-09-06,Yes,Yes
10159,Grantley,Abrams,Wife,Female,Abrams,Carol,1964-11-13,,
10159,Grantley,Abrams,Daughter,Female,Abrams,Tavea,1994-09-27,,
10160,Selwin,Grenion,Wife,Female,Grenion,Olett,1985-01-19,Yes,
10160,Selwin,Grenion,Son,Male,Grenion,Densel,2010-03-15,Yes,
10160,Selwin,Grenion,Daughter,Female,Grenion,Olivia,2015-03-05,,
10160,Selwin,Grenion,Son,Male,Grenion,Selvaughn,2007-11-20,Yes,
10162,Dawn,Baldeo-Koylass,Son,Male,Koylass,Nicholas,1994-11-11,,
10162,Dawn,Baldeo-Koylass,Son,Male,Koylass,Jason,1999-04-26,,
10162,Dawn,Baldeo-Koylass,Husband,Male,Koylass,Kenneth,1953-11-05,Yes,
10165,Colin,Thompson,Wife,Female,Thompson,Theresa,1974-11-29,Yes,
10165,Colin,Thompson,Daughter,Female,Thompson,Michaela,2016-03-20,Yes,
10165,Colin,Thompson,Daughter,Female,Thompson,Malia,2016-03-20,Yes,
10166,Deon,Lord,Son,Male,Lord,Ronneil,2004-02-11,Yes,
10166,Deon,Lord,Daughter,Female,Lord,Raynelle,1995-08-01,,
10167,Renetta,Mangal-Ruplall,Daughter,Female,Ruplall,Saura,2014-06-02,Yes,
10167,Renetta,Mangal-Ruplall,Husband,Male,Ruplall,Nateram,1975-06-22,Yes,
10167,Renetta,Mangal-Ruplall,Daughter,Female,Ruplall,Sasha,2007-07-08,Yes,
10169,Genista,Corlette,Husband,Male,Clarke,Paul,1970-10-24,Yes,
10169,Genista,Corlette,Daughter,Female,Clarke,Sophia,2015-07-31,Yes,
10169,Genista,Corlette,Son,Male,Clarke,Brian,2012-05-08,Yes,
10173,Kwesi,Jones,Daughter,Female,Jones,Yeva,2006-09-25,Yes,
10173,Kwesi,Jones,Son,Male,Jones,Yohance,2011-09-16,,
10173,Kwesi,Jones,Wife,Female,Jones,Francine,1978-05-12,Yes,
10173,Kwesi,Jones,Daughter,Female,Jones,Ysobel,2004-10-08,Yes,
10177,Raphael,Forde,Daughter,Female,Forde,Amira,2002-05-04,Yes,Yes
10177,Raphael,Forde,Wife,Female,Forde,Fiona,1980-11-21,Yes,
10177,Raphael,Forde,Son,Male,Forde,Raphael Jr.,1998-07-05,,
10182,Allison,Victor,Husband,Male,Wilkinson,Charles,1962-01-15,Yes,
10182,Allison,Victor,Daughter,Female,Victor,Ashante,1998-08-12,,
10182,Allison,Victor,Son,Male,Victor,Asim,1992-07-20,,
10183,Nicola,Williams-DaSilva,Husband,Male,Dasilva,Simpson,1958-10-31,Yes,
10183,Nicola,Williams-DaSilva,Daughter,Female,Anthony,Oneidge,1996-03-28,,
10183,Nicola,Williams-DaSilva,Mother,Female,Williams,Joan,1931-09-01,Yes,
10184,Kenrick,Daniels,Daughter,Female,Daniels,Jamilah,2013-10-17,Yes,
10184,Kenrick,Daniels,Wife,Female,Daniels,Phelisha,1979-01-27,Yes,
10184,Kenrick,Daniels,Daughter,Female,Daniels,Amira,2011-12-17,Yes,
10189,Alana,Wilburg,Son,Male,Blount,Isaiah,2019-10-11,Yes,
10189,Alana,Wilburg,Husband,Male,Blount,Olukie,1978-10-07,Yes,
10189,Alana,Wilburg,Daughter,,Blount,Keziah,2016-09-28,Yes,
10190,Philomen,Harrison,Son,Male,Harrison,Stephan,1984-08-05,,
10190,Philomen,Harrison,Son,Male,Harrison,Marek,1987-10-29,,
10194,Deoram,Persaud,Son,Male,Persaud,Ritesh,2010-05-17,Yes,
10194,Deoram,Persaud,Wife,Female,Persaud,Ramdularie,1968-05-07,Yes,
10196,Caryl Ann,Chester-Welch,Daughter,Female,Welch,Carlaysia,2009-07-30,,
10197,Michelle,Joseph-Chase,Son,Male,Chase,Jonathan,2002-11-23,Yes,Yes
10197,Michelle,Joseph-Chase,Husband,Male,Chase,Sven,1974-03-09,Yes,
10197,Michelle,Joseph-Chase,Son,Male,Chase,Julian,2005-03-08,Yes,
10197,Michelle,Joseph-Chase,Son,Male,Chase,Jaden,2000-09-15,,
10199,Christopher,Richards,Son,Male,Richards,Christian,2001-02-26,Yes,Yes
10199,Christopher,Richards,Wife,Female,Richards,Amanda,1963-11-18,Yes,
10202,Kevin,Sears,Daughter,Female,Sears,Harper,2016-07-29,,
10202,Kevin,Sears,Wife,Female,Sears,Lianne,1979-01-27,Yes,
10202,Kevin,Sears,Son,Male,Sears,Jackson,2017-07-13,,
10202,Kevin,Sears,Daughter,Female,Sears,Khloe,2012-06-27,Yes,
10202,Kevin,Sears,Daughter,Female,Sears,Jordyn,2014-04-03,Yes,
10203,Belinda,Henry,Daughter,Female,Henry,Kesi,2002-01-06,Yes,Yes
10203,Belinda,Henry,Husband,Male,Henry,Jason,1979-11-20,Yes,
10203,Belinda,Henry,Son,Male,Henry,Jason jnr.,2009-03-20,,
10203,Belinda,Henry,Daughter,Female,Henry,Quiana,2004-02-08,Yes,
10209,Joshua,Khan,Daughter,,Khan,Isabella,2016-12-01,,
10209,Joshua,Khan,Daughter,Female,Khan,Annabelle,2013-07-14,Yes,
10209,Joshua,Khan,Daughter,Female,Khan,Jessica,2014-10-28,Yes,
10209,Joshua,Khan,Wife,Female,Khan,Andrea,1986-04-28,Yes,
10212,Kendena,Hinds,Daughter,,Haley,Zaida,2009-10-06,Yes,
10216,Walton,Hamilton,Wife,Female,Hamilton,Carlene,1977-07-23,Yes,
10216,Walton,Hamilton,Son,Male,Hamilton,Dekel,1995-03-24,,
10216,Walton,Hamilton,Son,Male,Hamilton,Kael,2009-02-17,Yes,
10216,Walton,Hamilton,Son,Male,Hamilton,Kaidyn,2015-06-14,Yes,
10221,Bernard,Black,Daughter,Female,Black,Loren,2001-06-27,Yes,Yes
10221,Bernard,Black,Daughter,Female,Black,Claire,1988-11-09,,
10221,Bernard,Black,Wife,Female,Black,Lyndell,1969-06-26,Yes,
10222,Gordon,Watson,Daughter,Female,Watson,Zarah,2007-09-03,Yes,
10222,Gordon,Watson,Son,Male,Watson,Gordon,1992-08-28,,
10222,Gordon,Watson,Wife,Female,Watson,Euliene,1964-04-17,Yes,
10222,Gordon,Watson,Daughter,Female,Watson,Kazia,1990-09-05,,
10222,Gordon,Watson,Son,Male,Watson,Shalom,2000-01-02,,
10223,Dia,Christian,Son,Male,Christian,Rashad,2011-09-27,Yes,
10223,Dia,Christian,Son,Male,Christian,Zaire,2015-12-28,Yes,
10223,Dia,Christian,Wife,Female,Christian,Darlene,1986-11-04,,
10229,Timothy,Odle,Daughter,Female,Odle,Claire,1991-06-01,,
10229,Timothy,Odle,Daughter,Female,Odle,Renee,1995-01-25,,
10229,Timothy,Odle,Wife,Female,Odle,Vervenia,1961-02-12,Yes,
10229,Timothy,Odle,Son,Male,Odle,Jared,1986-08-31,,
10230,Pauline,Yearwood,Husband,Male,Yearwood,Denis,1951-12-08,Yes,
10237,Beverly,Reynolds,Son,Male,Reynolds,Adrian,1985-11-14,,
10239,David,Lord,Wife,Female,Marshall-Lord,Robyn,1978-10-09,Yes,
10240,Karen,Whitney,Daughter,Female,Brandford,Trichelle,1986-04-06,,
10240,Karen,Whitney,Daughter,Female,Lopes,Nekeisha,1990-09-15,,
10242,Colin,Granderson,Wife,Female,Granderson,Jacqueline,1958-05-08,Yes,
10243,Valerie,Alleyne Odle,Husband,Female,Odle,Maurice,1937-03-07,Yes,
10244,Tricia,Barrow-Hazelwood,Husband,Male,Hazelwood,Sheldon,1974-10-30,,
10244,Tricia,Barrow-Hazelwood,Father,Male,Barrow,Curtis,1952-03-01,Yes,
10244,Tricia,Barrow-Hazelwood,Mother,Female,Barrow,Angelica,1952-08-06,Yes,
10244,Tricia,Barrow-Hazelwood,Daughter,Female,Hazelwood,Christianne,2015-04-20,,
10247,Zailoon,Mohamed-Barrow,Husband,Male,Barrow,Wayne,1958-12-01,Yes,
10249,Serojnie,Seetaram,Mother,Female,Sitaram,Indrawattee,1944-01-25,Yes,
10253,Percival,Marie,Wife,Female,Marie,Lornette,1966-12-28,Yes,
10253,Percival,Marie,Daughter,Female,Marie,Melissa,1994-12-28,,
10257,Mignon,Bowen-Phillips,Husband,,Phillips,Mark,1961-10-05,Yes,
10257,Mignon,Bowen-Phillips,Daughter,Female,Phillips,Maya,1995-11-17,,
10258,Sandy,Griffith,Son,Male,Gittens,Akil,1995-01-03,,
10261,Gillian,Bristol,Son,Male,Clarke,Tariq,1999-11-25,,
10262,Lorenza,Griffith,Son,Male,Skeete,Joel,2001-12-13,,
10265,Faye,Marks,Son,Male,Marks,Jason,1998-11-16,,
10265,Faye,Marks,Son,Male,Marks,Jorell,2001-10-16,Yes,Yes
10265,Faye,Marks,Husband,Male,Marks,Leonard,1959-04-01,Yes,
10269,Vanessa,Kewley,Mother,,Peters,Enid,1926-09-16,,
10269,Vanessa,Kewley,Son,,Kewley,Tremayne,1988-12-28,,
10276,Janice,Roberts-Tyndall,Husband,Male,Tyndall,Milton,1964-01-27,Yes,
10276,Janice,Roberts-Tyndall,Daughter,Female,Tyndall,Ayodele,1994-10-31,,
10276,Janice,Roberts-Tyndall,Mother,Female,Roberts,Albertha,1935-08-27,Yes,
10278,Hilary,Brown,Daughter,Female,Campbell,Nia,2006-05-03,Yes,
10278,Hilary,Brown,Daughter,Female,Campbell,Jada,2002-01-21,Yes,Yes
10278,Hilary,Brown,Husband,Male,Campbell,John,1960-12-26,Yes,
10283,Deborah,Barrow,Husband,Male,Graham,Ian,1971-06-01,Yes,
10283,Deborah,Barrow,Daughter,Female,Barrow,Faith,2008-12-08,Yes,
10283,Deborah,Barrow,Son,Male,Barrow,Jivan,2003-10-06,Yes,
10284,Karen,Hales,Husband,Male,Hales,David,1950-10-09,Yes,
10284,Karen,Hales,Son,Male,Hales,Michael,1983-08-26,,
10284,Karen,Hales,Son,Male,Hales,Vitas,1981-12-23,,
10286,Arlene,Graham,Husband,Male,Graham,Troy,1965-03-11,Yes,
10296,Nichelle,Foo,Husband,Male,Chandra,Dean,1975-01-13,Yes,
10297,Mallisa,Dubissette,Husband,Male,Munroe,Dwayne,1978-11-10,,
10297,Mallisa,Dubissette,Son,Male,Munroe,Alexander,2013-01-22,,
10297,Mallisa,Dubissette,Son,Male,Munroe,Avery,2016-03-31,,
10302,Sharon,Khan-Persaud,Son,,Persaud,Adrian,2001-02-19,Yes,Yes
10302,Sharon,Khan-Persaud,Husband,,Persaud,Paul,1975-05-07,,
10304,Christopher,Lawrence,Wife,,Lawrence,Shawnette,1987-09-20,Yes,
10304,Christopher,Lawrence,Daughter,,Lawrence,Shanice,2016-08-24,Yes,
10309,Karen,Cumberbatch,Husband,Male,Cumberbatch,Richard,1952-12-26,Yes,
10316,Rhonda,Chin,Daughter,Female,Chin,Britney,1997-08-08,,
10316,Rhonda,Chin,Husband,Male,Chin,Raul,1976-11-18,Yes,
10316,Rhonda,Chin,Son,Male,Chin,Brahnan,2001-05-24,,
10317,Andrea,Owen,Mother,Female,Owen,Minerva,1940-01-04,Yes,
10320,Jennifer,Britton,Son,Male,Scott,Tyriq,2002-02-27,Yes,Yes
10320,Jennifer,Britton,Husband,Male,Scott,Floyd,1962-05-05,Yes,
10323,Charmaine,Bailey-Bloomfield,Son,Male,Bloomfield,Alexander,2006-06-21,,
10323,Charmaine,Bailey-Bloomfield,Daughter,Female,Bloomfield,Layanne,1993-03-01,,
10323,Charmaine,Bailey-Bloomfield,Son,Male,Bloomfield,Lee-Andrew,1995-04-10,,
10326,Derek,Browne,,,,,--,,
10329,Marsha,Drakes,Daughter,Female,Williams,Daenerys,2013-09-03,Yes,
10329,Marsha,Drakes,Husband,Male,Williams,Steven,1974-05-13,Yes,
10330,Deborah,Hunte-Lewis,,,,,--,,
10335,Chantal,Ononaiwu,Husband,Male,Robertson,Keith,1977-04-09,Yes,
10335,Chantal,Ononaiwu,Son,Male,Robertson,Kanu,2011-01-14,Yes,
10335,Chantal,Ononaiwu,Daughter,Female,Robertson,Kenna,2015-05-13,Yes,
10340,Cherryann,Sampson,Daughter,Female,Weeks,Dakoda,1995-09-28,,
10340,Cherryann,Sampson,Son,Male,Sampson,Joshua,2005-11-24,Yes,
10340,Cherryann,Sampson,Husband,Male,Sampson,Justin,1982-02-16,Yes,
10342,Ronda,Smith,Daughter,Female,Smith,Ankara,2003-02-05,Yes,
10344,Delroy,Swaby,,,,,--,,
10345,Andrea,Taitt,,,,,--,,
10348,Rawl,Prescott,,,,,--,,
10348,Rawl,Prescott,Wife,Female,Prescott,Natoya,1990-01-25,Yes,
10349,Stacy,Campbell,Son,Male,Wills,Carl,2004-05-16,Yes,
10350,Gladys,Young,Husband,Male,White,Cavon,1974-12-24,Yes,
10350,Gladys,Young,Daughter,Female,White,Anna,2012-04-10,Yes,
10352,Karen,Daniels,Husband,Male,Daniels,Earl,1963-05-01,Yes,
10352,Karen,Daniels,Daughter,Female,Daniels,Crystal,1992-10-16,,
10354,Bridget,Johnson,Husband,Male,Johnson,Clarence,1957-12-22,Yes,
10355,Brian,Bellevue,Son,Male,Bellevue,Andre,2005-04-09,Yes,
10355,Brian,Bellevue,Daughter,Female,Bellevue,Cherelle,2000-12-06,Yes,Yes
10355,Brian,Bellevue,Wife,Female,Bellevue,Lena,1971-12-01,Yes,
10355,Brian,Bellevue,Son,Male,Bellevue,Jaden,2003-03-20,,
10358,Anesta,Archer,Husband,Male,Archer,Norville,1973-04-29,Yes,
10358,Anesta,Archer,Son,Male,Archer,Keziah,2012-10-14,Yes,
10363,Douglas,Slater,Wife,Female,Slater,Sherian,1958-09-09,Yes,
10363,Douglas,Slater,Daughter,Female,Slater,Sherina,1992-04-13,,
10365,Ian,Cole,Wife,Female,COLE,NELLISA,1988-12-07,Yes,
10365,Ian,Cole,Son,Male,Cole,Joshua,2001-03-29,Yes,Yes
10365,Ian,Cole,Daughter,Female,Cole,Rainelle,1998-06-06,,
10365,Ian,Cole,Son,Male,Cole,Tristan,2016-10-26,Yes,
10366,Philip,McClauren,Son,Male,McClauren,Mc Neil,2003-12-17,Yes,Yes
10366,Philip,McClauren,Son,Male,McClauren,Mc Neila,2005-07-19,Yes,
10366,Philip,McClauren,Wife,Female,McClauren,Cheryl,1978-07-16,Yes,
10378,Laurel,Wickham,Daughter,Female,Wickham,Esther,2003-05-03,Yes,
10378,Laurel,Wickham,Son,,Wickham,Lemuel,1996-10-01,,
10378,Laurel,Wickham,Husband,Male,Wickham,Gregory,1968-01-19,Yes,
10384,Kendol,Morgan,Son,Male,Morgan,Khal,1999-01-16,Yes,Yes
10388,Sherwin,Toyne-Stephenson,Son,Male,Stephenson,Kristn,1993-01-27,,
10390,Travis,Gomes,Son,Male,Gomes,Elijah,2006-06-13,Yes,
10390,Travis,Gomes,Daughter,Female,Gomes,Emily,2010-06-30,Yes,
10390,Travis,Gomes,Daughter,Female,Gomes,Eliana,2016-07-02,,
10390,Travis,Gomes,Wife,Female,Gomes,Melissa,1984-04-03,Yes,
10391,Desmond,John,Wife,Female,Edwards-John,Jenifer,1972-10-11,Yes,
10392,Nickosha,DeNobrega,Son,Male,DeNobrega,Brandon,2003-11-16,Yes,
10392,Nickosha,DeNobrega,Son,Male,DeNobrega,Nathan,2010-04-04,Yes,
10394,Troy,Wishart,Daughter,,Wishart,Anyah,2020-10-20,,
10394,Troy,Wishart,Wife,Female,Spellen-Wishart,Abiola,1983-11-12,Yes,
10394,Troy,Wishart,Son,,Wishart,Jaivyn,2018-09-20,Yes,
10394,Troy,Wishart,Son,Male,Wishart,Mikhail,2015-06-01,Yes,
10395,Roscoe,Chung,Son,Male,Chung,Ethan,2007-10-29,Yes,
10396,Duran,DeFreitas,Wife,Female,De Freitas,Arifa,1998-08-02,Yes,
10396,Duran,DeFreitas,Daughter,Female,De Freitas,Syra,2020-06-29,Yes,
10396,Duran,DeFreitas,Son,Male,De Freitas,Saif,2018-12-03,Yes,
10398,Devon,Gardner,Wife,Female,Mayers,Denisha,1975-06-10,Yes,
10398,Devon,Gardner,Daughter,Female,Gardner,Alanis,2008-10-10,Yes,
10401,Nacia,Carrillo,Son,Male,Gibson,Nazhib,1993-05-09,,
10401,Nacia,Carrillo,Son,Male,Gibson,Hilderbrand,1987-10-17,,
10401,Nacia,Carrillo,Daughter,Female,Gibson,Magdalen,1995-01-25,,
10401,Nacia,Carrillo,Son,Male,Gibson,Harriot,1996-05-10,,
10403,Jhonson,Alexandre,Daughter,Female,Alexandre,Christina,2008-10-23,Yes,
10403,Jhonson,Alexandre,Wife,Female,Joseph,Darline,1981-04-02,Yes,
10403,Jhonson,Alexandre,Daughter,Female,Pierre,Djamhiany,2010-10-31,Yes,
10414,Alfred,Jones,Son,Male,Jones,Dorwyn,2006-12-16,Yes,
10414,Alfred,Jones,Son,Male,Jones,Shemar,2000-12-31,,
10414,Alfred,Jones,Wife,Female,Jones,Sherry,1989-09-19,Yes,
10414,Alfred,Jones,Son,Male,Jones,Shequan,2004-03-31,Yes,
10417,Hipolina,Joseph,Husband,Male,Charles,Leslie,1959-07-13,Yes,
10418,Joseph,Cox,Wife,Female,Cox,Janelle,1963-07-24,Yes,
10420,Marcia,Blackman-Bishop,Husband,Male,Bishop,John,1960-09-04,Yes,
10420,Marcia,Blackman-Bishop,Daughter,Female,Williams,Lashauna,2000-12-05,Yes,Yes
10421,Angel,Brumell-Charles,Son,,Charles,Aiden,2018-01-09,Yes,
10421,Angel,Brumell-Charles,Husband,,Charles,Ronald,1982-02-02,Yes,
10422,Andrew,Leitch,Wife,Female,Leitch,Sharda,1973-12-10,Yes,
10423,Abigail,Husbands,Husband,Male,Husbands,Steven,1987-12-04,Yes,
10428,Fiona,West,Son,Male,Duesbury,Steve,1996-09-14,,
10428,Fiona,West,Son,,Duesbury,Brent,1999-10-19,,
10430,Simone,Joseph-Ollivierre,Husband,Male,Olivierre,Camillus,1979-12-17,Yes,
10434,Vivian,Rookhum,Son,Male,Rookhum,Gabriel,2006-04-05,Yes,
10434,Vivian,Rookhum,Daughter,Female,Rookhum,Azalea,2012-08-15,Yes,
10434,Vivian,Rookhum,Wife,Female,Rookhum,Preya,1983-10-22,Yes,
10442,Mandy,Tyndall,Husband,Male,Anderson,Rodwell,1988-03-11,Yes,
10445,Shona,Quammie,Son,,Webster,Ethan,2013-06-19,Yes,
10445,Shona,Quammie,Mother,,Charles,Jacqueline,1957-10-08,Yes,
10447,Shawin,Thornhill,Son,Male,Thornhill,Sadiki,1998-09-30,,
10447,Shawin,Thornhill,Son,Male,Thornhill,Simeon,2011-06-10,,
10447,Shawin,Thornhill,Daughter,Female,Thornhill,Shakeda,2004-11-21,Yes,
10447,Shawin,Thornhill,Wife,Female,Thornhill,Abiola,1974-09-02,Yes,
10447,Shawin,Thornhill,Son,Male,Thornhill,Samuel,2009-02-21,Yes,
10453,Austin,Daley,Son,Male,Daley,Warren,2002-11-20,Yes,Yes
10453,Austin,Daley,Wife,,Johnson-Daley,Jacqueline,1963-07-08,Yes,
10453,Austin,Daley,Son,Male,Daley,Leslie,2004-06-08,Yes,
10456,Lucretia,Benn,Husband,Male,Benn,Carl,1989-03-02,Yes,
10456,Lucretia,Benn,Daughter,Female,Benn,Camiah,2014-10-28,Yes,
10456,Lucretia,Benn,Son,Male,Benn,Carl jr.,2019-12-27,Yes,
10457,Steveon,Thomas,Daughter,Female,Thomas,Eglantine,2011-12-15,Yes,
10457,Steveon,Thomas,Daughter,Female,Thomas,Penelope,2016-05-13,Yes,
10457,Steveon,Thomas,Wife,Female,Thomas,Macena,1986-07-01,Yes,
10461,Corlita,Babb-Schaefer,Son,Male,Schaefer,Johannes,2009-05-11,Yes,
10461,Corlita,Babb-Schaefer,Son,Male,Schaefer,Yannick,2012-04-24,Yes,
10461,Corlita,Babb-Schaefer,Husband,Male,Schaefer,Frank,1974-03-20,Yes,
10462,Ferris,Slowe,Wife,Female,Slowe,Keel,1981-11-21,Yes,
10462,Ferris,Slowe,Son,Male,Slowe,Kefer,2004-12-09,Yes,
10462,Ferris,Slowe,Son,Male,Slowe,Risel,2006-12-17,Yes,
10466,Carlyle,Softly,Wife,Female,Softly,Nicola,1982-12-03,Yes,
10466,Carlyle,Softly,Daughter,Female,Softly,Keriann,1999-12-04,,
10466,Carlyle,Softly,Son,Male,Softly,Kevon,2002-10-19,,
10466,Carlyle,Softly,Daughter,Female,Softly,Kesciann,2006-11-17,Yes,
10466,Carlyle,Softly,Daughter,Female,Softly,Crystal,2018-11-29,Yes,
10468,Nashayia,Bovell,Husband,Male,Scott,Jamal,1995-05-29,Yes,
10468,Nashayia,Bovell,Son,Male,Scott,Triston,2018-04-20,Yes,
10471,Adellee,Fraser,Son,,Tulloch,Tre,2001-04-05,Yes,Yes
10471,Adellee,Fraser,Mother,,Fraser,Louise,1935-04-23,,
10473,La Toya,De Mendonca-Blair,Daughter,,Blair,Rhenae,2011-10-12,Yes,
10473,La Toya,De Mendonca-Blair,Husband,Male,Blair,Richard,1970-05-14,Yes,
10473,La Toya,De Mendonca-Blair,Daughter,Female,Blair,Raeba,2017-04-26,,
10473,La Toya,De Mendonca-Blair,Daughter,Female,Blair,Renatta,2008-08-22,Yes,
10477,Leeanna,Allen,Son,Male,Allen,Othniel,2013-03-23,Yes,
10477,Leeanna,Allen,Son,Male,Allen,Emmanuel,2017-11-08,Yes,
10477,Leeanna,Allen,Husband,Male,Allen,Colin,1986-01-24,Yes,
10478,Tabitha,Patram,Daughter,Female,Patram,Elliana,2020-04-01,Yes,
10478,Tabitha,Patram,Husband,Male,Patram,Elton,1979-10-09,Yes,
10478,Tabitha,Patram,Daughter,Female,Patram,Sarah,2013-01-18,Yes,
10479,Janis,Marville,Husband,Male,Marville,Charles,1952-07-23,Yes,
10483,Radha,Permanand,Son,Male,Pujadas,Ethan,2005-09-19,Yes,
10484,Lester,Simon,Daughter,Female,Simon,Suriah,2010-04-22,Yes,
10484,Lester,Simon,Daughter,Female,Simon,Azaria,2014-03-05,Yes,
10484,Lester,Simon,Wife,Female,Simon,Sueann,1984-09-16,Yes,
10484,Lester,Simon,Son,Male,Simon,Adriel,2014-03-05,,
10488,Kareem,Sabir,Wife,Female,Mayers,Abena,1993-02-16,Yes,
10488,Kareem,Sabir,Daughter,Female,Sabir,Anisa,2019-12-04,Yes,
10492,Shaun,Baugh,Wife,Female,Baugh,Makeda,1979-05-07,Yes,
10492,Shaun,Baugh,Daughter,Female,Baugh,Stavita,2012-06-20,Yes,
10495,Michele,Small-Bartley,Son,Male,Bartley,Joshua,1999-11-07,Yes,Yes
10497,Paul,Taylor,Son,Male,Taylor,Tevaun,2005-07-17,Yes,
10497,Paul,Taylor,Wife,Female,Taylor,Ellen,1974-04-16,Yes,
10497,Paul,Taylor,Son,Male,Taylor,Tejaun,2013-10-08,,
10497,Paul,Taylor,Daughter,Female,Taylor,Tanesha,2000-02-05,Yes,Yes
10500,Helen,Royer,Husband,Male,Royer,Jean-Marie,1960-07-22,Yes,
10502,Sudesh,Krishnaram,Daughter,Female,Krishnaram,Leah,2011-08-23,Yes,
10502,Sudesh,Krishnaram,Son,Male,Krishnaram,Nahum,2013-12-24,Yes,
10502,Sudesh,Krishnaram,Wife,Female,Krishnaram,Dianna,1988-02-05,Yes,
10503,Stacy-Ann,Barnes,Daughter,,Barnes,Stephanie,2001-04-06,Yes,Yes
10503,Stacy-Ann,Barnes,Husband,Male,Barnes,Duane,1973-02-02,Yes,
10505,Ryan,Bynoe,Wife,Female,Jackman,Mahalea,1986-07-16,Yes,
10507,Shivanand,Ramnanan,Daughter,Female,Ramnanan,Suheyl,2015-01-09,Yes,
10508,Sylna,Ambris-Dick,Husband,Male,Dick,Ronald,1962-02-13,Yes,
10509,Rosmond,Adams,Wife,Female,Jn Baptiste-Adams,Bettie,1980-07-22,,
10509,Rosmond,Adams,Daughter,Female,Adams,Belle,2012-02-28,,
10509,Rosmond,Adams,Daughter,,Adams,Raya,2017-04-17,Yes,
10510,Shonette,Morris,Daughter,Female,Haley,Malia,2009-04-02,Yes,
10510,Shonette,Morris,Son,Male,Haley,Javier,2017-09-23,Yes,
10511,Leo,Preville,Wife,Female,Preville,Mary,1964-08-08,Yes,
10513,Cindy,Williams,Daughter,Female,Williams,Cadijah,2014-09-27,Yes,
10513,Cindy,Williams,Daughter,Female,Williams,Cadeehia,2016-01-03,,
10513,Cindy,Williams,Daughter,Female,Blackman,Candida,2003-04-16,Yes,Yes
10514,Karen,Gordon-Boyle,Husband,Male,Campbell,Terrence,1964-02-16,Yes,
10514,Karen,Gordon-Boyle,Daughter,Female,Boyle,Keziah,1999-05-14,Yes,Yes
10520,David,Prendergast,Wife,Female,Prendergast,Angella,1977-09-15,Yes,
10520,David,Prendergast,Son,Male,Prendergast,Joseph,2011-05-18,Yes,
10521,Franzia,Edwards,Husband,Male,Chism,Hebron,1962-02-19,Yes,
10527,Jimmy,Bhojedat,Daughter,Female,Bhojedat,Ariel,2012-07-22,Yes,
10527,Jimmy,Bhojedat,Wife,Female,Bhojedat,Angel,1981-10-14,Yes,
10527,Jimmy,Bhojedat,Son,Male,Bhojedat,Jediel,2007-08-05,Yes,
10528,Carla,Barnett,Son,Male,Pandy,Wilbert,2002-10-13,Yes,Yes
10528,Carla,Barnett,Husband,Male,Pandy,Lloyd,1955-03-04,Yes,
10529,Falicia,Adams,Husband,Male,Adams,Christopher,1980-12-18,Yes,
10529,Falicia,Adams,Daughter,Female,Adams,Jasmine,2009-07-20,Yes,
10529,Falicia,Adams,Daughter,Female,Adams,Kayla,2011-05-22,Yes,
